…
We can use `count()` from `dplyr` to figure out how many different
catagories do we have? Are these catagories related? overlapping? evenly
distributed?

  - There are 40 categories not being overlapped.

<!-- end list -->

``` r
mt_samples %>%
  count(medical_specialty, sort = TRUE)
```

    ## # A tibble: 40 x 2
    ##    medical_specialty                 n
    ##    <chr>                         <int>
    ##  1 Surgery                        1103
    ##  2 Consult - History and Phy.      516
    ##  3 Cardiovascular / Pulmonary      372
    ##  4 Orthopedic                      355
    ##  5 Radiology                       273
    ##  6 General Medicine                259
    ##  7 Gastroenterology                230
    ##  8 Neurology                       223
    ##  9 SOAP / Chart / Progress Notes   166
    ## 10 Obstetrics / Gynecology         160
    ## # ... with 30 more rows
…
``` r
library(tidyr)
mt_bigrams <- mt_samples %>%
  unnest_ngrams(token, transcription, n = 2) %>%
  separate(token, into = c("word1", "word2"), sep = " ") %>%
  select(word1, word2)

mt_bigrams %>%
  filter(word1 == "patient") %>%
  count(word2, sort = TRUE)
```

    ## # A tibble: 588 x 2
    ##    word2         n
    ##    <chr>     <int>
    ##  1 was        6291
    ##  2 is         3330
    ##  3 has        1417
    ##  4 tolerated   992
    ##  5 had         888
    ##  6 will        616
    ##  7 denies      552
    ##  8 and         377
    ##  9 states      363
    ## 10 does        334
    ## # ... with 578 more rows

``` r
mt_bigrams %>%
  filter(word2 == "patient") %>%
  count(word1, sort = TRUE)
```

    ## # A tibble: 269 x 2
    ##    word1         n
    ##    <chr>     <int>
    ##  1 the       20301
    ##  2 this        470
    ##  3 history     101
    ##  4 a            67
    ##  5 and          47
    ##  6 procedure    32
    ##  7 female       26
    ##  8 with         25
    ##  9 use          24
    ## 10 old          23
    ## # ... with 259 more rows

``` r
mt_bigrams %>%
  anti_join(
    tidytext::stop_words %>% select(word), by = c("word1" = "word")
  ) %>%
  anti_join(
    tidytext::stop_words %>% select(word), by = c("word2" = "word")
  ) %>%
  count(word1, word2, sort = TRUE)
```

    ## # A tibble: 128,013 x 3
    ##    word1         word2           n
    ##    <chr>         <chr>       <int>
    ##  1 0             vicryl       1802
    ##  2 blood         pressure     1265
    ##  3 medical       history      1223
    ##  4 diagnoses     1            1192
    ##  5 preoperative  diagnosis    1176
    ##  6 physical      examination  1156
    ##  7 4             0            1123
    ##  8 vital         signs        1117
    ##  9 past          medical      1113
    ## 10 postoperative diagnosis    1092
    ## # ... with 128,003 more rows
…
Which words are most used in each of the specialties. you can use
`group_by()` and `top_n()` from `dplyr` to have the calculations be done
within each specialty. Remember to remove stopwords. How about the most
5 used words?

``` r
mt_samples %>%
  unnest_tokens(token, transcription) %>%
  anti_join(tidytext::stop_words, by = c("token" = "word")) %>%
  group_by(medical_specialty) %>%
  count(token) %>%
  top_n(5, n)
```

    ## # A tibble: 209 x 3
    ## # Groups:   medical_specialty [40]
    ##    medical_specialty    token         n
    ##    <chr>                <chr>     <int>
    ##  1 Allergy / Immunology allergies    21
    ##  2 Allergy / Immunology history      38
    ##  3 Allergy / Immunology nasal        13
    ##  4 Allergy / Immunology noted        23
    ##  5 Allergy / Immunology past         13
    ##  6 Allergy / Immunology patient      22
    ##  7 Autopsy              1            66
    ##  8 Autopsy              anterior     47
    ##  9 Autopsy              inch         59
    ## 10 Autopsy              left         83
    ## # ... with 199 more rows
…
